{
    "$schema": "https://schema.management.azure.com/schemas/2015-01-01/deploymentTemplate.json#",
    "contentVersion": "1.0.0.0",
    "parameters": {
        "databaseSelection": {
            "type": "string"
        },
        "databaseName": {
            "type": "string"
        },
        "databaseAdminUsername": {
            "type": "string"
        },
        "databaseAdminPassword": {
            "type": "securestring"
        },
        "publicIPAddress": {
            "type": "string"
        }
    },
    "variables": {

    },
    "resources": [
        {
            "name": "[parameters('databaseName')]",
            "type": "Microsoft.DBforMySQL/servers",
            "apiVersion": "2017-04-30-preview",
            "sku": {
              "name": "MYSQLB100",
              "tier": "Basic",
              "capacity": 100,
              "size": 51200,
              "family": "skuFamily"
            },
            "properties": {
              "createMode": "Default",
              "storageMB": 51200,
              "version": "5.7",
              "sslEnforcement": "Disabled",
              "administratorLogin": "[parameters('databaseAdminUsername')]",
              "administratorLoginPassword": "[parameters('databaseAdminPassword')]"
            },
            "location": "[resourceGroup().location]",
            "tags": {},
            "resources": [
                {
                    "name": "DBFirewallRules",
                    "type": "firewallRules",
                    "apiVersion": "2017-04-30-preview",
                    "dependsOn": [
                        "[concat('Microsoft.DBforMySQL/servers/', parameters('databaseName'))]"
                    ],
                    "properties": {
                      "startIpAddress": "[parameters('publicIPAddress')]",
                      "endIpAddress": "[parameters('publicIPAddress')]"
                    }
                  }
            ]
          }
    ],
    "outputs": {

    }
}