{
    "$schema": "https://schema.management.azure.com/schemas/2015-01-01/deploymentTemplate.json#",
    "contentVersion": "1.0.0.0",
    "parameters": {
        "location": {
            "type": "string"
        },
        "networkName": {
            "type": "string"
        },
        "subnetName": {
            "type": "string"
        },
        "addressPrefix": {
            "type": "string"
        },
        "subnetPrefix": {
            "type": "string"
        },
        "publicIPAddressName": {
            "type": "string"
        },
        "domainNameLabel": {
            "type": "string"
        },
        "loadbalancerName": {
            "type": "string"
        },
        "backendAddressPoolName": {
            "type": "string"
        },
        "natPoolName": {
            "type": "string"
        },
        "backEndPort": {
            "type": "int"
        },
        "applicationPort": {
            "type": "int"
        }
    },
    "variables": {
        "lbID": "[resourceId('Microsoft.Network/loadBalancers',parameters('loadbalancerName'))]",
        "frontEndIPConfigID": "[concat(variables('lbID'),'/frontendIPConfigurations/loadBalancerFrontEnd')]",
        "natStartPort": 50000,
        "natEndPort": 50010
    },
    "resources": [
        {
            "name": "[parameters('networkName')]",
            "type": "Microsoft.Network/virtualNetworks",
            "apiVersion": "2017-10-01",
            "location": "[parameters('location')]",
            "properties": {
              "addressSpace": {
                "addressPrefixes": [
                  "[parameters('addressPrefix')]"
                ]
              },
              "subnets": [
                {
                    "name": "[parameters('subnetName')]",
                    "properties": {
                        "addressPrefix": "[parameters('subnetPrefix')]"
                    }
                }
              ]
            }
        },
        {
            "type": "Microsoft.Network/publicIPAddresses",
            "name": "[parameters('publicIPAddressName')]",
            "location": "[parameters('location')]",
            "apiVersion": "2017-10-01",
            "properties": {
                "publicIPAllocationMethod": "Static",
                "dnsSettings": {
                    "domainNameLabel": "[parameters('domainNameLabel')]"
                }
            }
        },
        {
            "type": "Microsoft.Network/loadBalancers",
            "name": "[parameters('loadbalancerName')]",
            "location": "[parameters('location')]",
            "apiVersion": "2017-10-01",
            "dependsOn": [
                "[concat('Microsoft.Network/publicIPAddresses/', parameters('publicIpAddressName'))]"
            ],
            "properties": {
                "frontendIPConfigurations": [
                    {
                        "name": "LoadBalancerFrontEnd",
                        "properties": {
                            "publicIPAddress": {
                                "id": "[resourceId('Microsoft.Network/publicIPAddresses',parameters('publicIpAddressName'))]"
                            }
                        }
                    }
                ],
                "backendAddressPools": [
                    {
                        "name": "[parameters('backendAddressPoolName')]"
                    }
                ],
                "inboundNatPools": [
                    {
                        "name": "[parameters('natPoolName')]",
                        "properties": {
                            "frontendIPConfiguration": {
                                "id": "[variables('frontEndIPConfigID')]"
                            },
                            "protocol": "tcp",
                            "frontendPortRangeStart": "[variables('natStartPort')]",
                            "frontendPortRangeEnd": "[variables('natEndPort')]",
                            "backendPort": "[parameters('backEndPort')]"
                        }
                    }
                ],
                "loadBalancingRules": [
                    {
                        "name": "HTTPRule",
                        "properties": {
                            "loadDistribution": "Default",
                            "frontendIPConfiguration": {
                                "id": "[concat(variables('lbID'),'/frontendIPConfigurations/LoadBalancerFrontEnd')]"
                            },
                            "backendAddressPool": {
                                "id": "[concat(variables('lbID'),'/backendAddressPools/', parameters('backendAddressPoolName'))]"
                            },
                            "protocol": "Tcp",
                            "frontendPort": 80,
                            "backendPort": "[parameters('applicationPort')]",
                            "enableFloatingIP": false,
                            "idleTimeoutInMinutes": 5
                        }
                    }
                ]
            }
        }
    ],
    "outputs": {
        "publicIPAddress": {
            "type": "string",
            "value": "[reference(parameters('publicIpAddressName')).ipAddress]"
        }
    }
}